%YAML 1.1
%TAG !u! tag:unity3d.com,2011:
--- !u!114 &11400000
MonoBehaviour:
  m_ObjectHideFlags: 0
  m_PrefabParentObject: {fileID: 0}
  m_PrefabInternal: {fileID: 0}
  m_GameObject: {fileID: 0}
  m_Enabled: 1
  m_EditorHideFlags: 0
  m_Script: {fileID: 11500000, guid: a5fac0b2c4da9499891f5a2e62563e15, type: 3}
  m_Name: ExampleObjectsSet
  m_EditorClassIdentifier: 
  resourceGroupName: ExampleObjectsResourceGroup
  referenceObjectAssets:
  - {fileID: 11400000, guid: 7c54b4e675f5e4b98ad612567ed1fd4a, type: 2}
